{
  "schema_version": "1.0.0",
  "elements": [
    {
      "description": "`ev-analytics` is a simple component for adding Google Analytics tracking to a\nwidget.\n\nExample:\n\n    <ev-analytics tracking-id=\"GA-TRACKING-ID\"></ev-analytics>\n\nIP tracking can be turned off by setting the `anonymize` flag:\n\n    <ev-analytics tracking-id=\"GA-TRACKING-ID\" anonymize></ev-analytics>\n\nOnce included in your page, the element will automatically find elements on the\npage and bind events to them which dispatch the information to Google\nAnalytics.",
      "summary": "",
      "path": "ev-analytics.html",
      "properties": [
        {
          "name": "trackingId",
          "type": "string | null | undefined",
          "description": "UA identifier for Google Analytics tracking",
          "privacy": "public",
          "sourceRange": {
            "start": {
              "line": 31,
              "column": 10
            },
            "end": {
              "line": 31,
              "column": 28
            }
          },
          "metadata": {
            "polymer": {
              "attributeType": "String"
            }
          }
        },
        {
          "name": "dimensionsMap",
          "type": "Object | null | undefined",
          "description": "The dimensions map? TODO:",
          "privacy": "public",
          "sourceRange": {
            "start": {
              "line": 33,
              "column": 10
            },
            "end": {
              "line": 33,
              "column": 31
            }
          },
          "metadata": {
            "polymer": {
              "attributeType": "Object"
            }
          }
        },
        {
          "name": "anonymize",
          "type": "boolean | null | undefined",
          "description": "Turns IP tracking on/off in Google Analytics",
          "privacy": "public",
          "sourceRange": {
            "start": {
              "line": 35,
              "column": 10
            },
            "end": {
              "line": 38,
              "column": 11
            }
          },
          "metadata": {
            "polymer": {
              "attributeType": "Boolean"
            }
          },
          "defaultValue": "false"
        }
      ],
      "methods": [
        {
          "name": "ready",
          "description": "",
          "privacy": "protected",
          "sourceRange": {
            "start": {
              "line": 42,
              "column": 6
            },
            "end": {
              "line": 58,
              "column": 7
            }
          },
          "metadata": {},
          "params": [],
          "return": {
            "type": "void"
          }
        },
        {
          "name": "gtag",
          "description": "Send the event data to Google Analytics.",
          "privacy": "public",
          "sourceRange": {
            "start": {
              "line": 63,
              "column": 6
            },
            "end": {
              "line": 65,
              "column": 7
            }
          },
          "metadata": {},
          "params": [],
          "return": {
            "type": "void"
          }
        },
        {
          "name": "_addGoogleAnalytics",
          "description": "Adds Google Analytics script to the page based on the tracking id.",
          "privacy": "protected",
          "sourceRange": {
            "start": {
              "line": 70,
              "column": 6
            },
            "end": {
              "line": 79,
              "column": 7
            }
          },
          "metadata": {},
          "params": [],
          "return": {
            "type": "void"
          }
        },
        {
          "name": "_initialiseAnalytics",
          "description": "",
          "privacy": "protected",
          "sourceRange": {
            "start": {
              "line": 81,
              "column": 6
            },
            "end": {
              "line": 87,
              "column": 7
            }
          },
          "metadata": {},
          "params": [],
          "return": {
            "type": "void"
          }
        },
        {
          "name": "_addEventBindings",
          "description": "",
          "privacy": "protected",
          "sourceRange": {
            "start": {
              "line": 89,
              "column": 6
            },
            "end": {
              "line": 100,
              "column": 7
            }
          },
          "metadata": {},
          "params": [],
          "return": {
            "type": "void"
          }
        },
        {
          "name": "addEventBinding",
          "description": "Binding a event at least one element based on a valid selector",
          "privacy": "public",
          "sourceRange": {
            "start": {
              "line": 110,
              "column": 6
            },
            "end": {
              "line": 137,
              "column": 7
            }
          },
          "metadata": {},
          "params": [
            {
              "name": "elements",
              "type": "Array.<HTMLElement>",
              "description": "all elements to potentially track"
            },
            {
              "name": "selector",
              "type": "String",
              "description": "element selector"
            },
            {
              "name": "eventType",
              "type": "String",
              "description": "name of the type of the event"
            },
            {
              "name": "category",
              "type": "String",
              "description": "name of the category used to log in Google Analytics"
            },
            {
              "name": "label",
              "type": "String",
              "description": "label describing the action of the event"
            }
          ],
          "return": {
            "type": "void"
          }
        },
        {
          "name": "_initDimensions",
          "description": "",
          "privacy": "protected",
          "sourceRange": {
            "start": {
              "line": 139,
              "column": 6
            },
            "end": {
              "line": 156,
              "column": 7
            }
          },
          "metadata": {},
          "params": [],
          "return": {
            "type": "void"
          }
        }
      ],
      "staticMethods": [],
      "demos": [
        {
          "url": "demo/index.html",
          "description": ""
        }
      ],
      "metadata": {},
      "sourceRange": {
        "start": {
          "line": 26,
          "column": 4
        },
        "end": {
          "line": 157,
          "column": 5
        }
      },
      "privacy": "public",
      "superclass": "Polymer.Element",
      "name": "EvAnalytics",
      "attributes": [
        {
          "name": "tracking-id",
          "description": "UA identifier for Google Analytics tracking",
          "sourceRange": {
            "start": {
              "line": 31,
              "column": 10
            },
            "end": {
              "line": 31,
              "column": 28
            }
          },
          "metadata": {},
          "type": "string | null | undefined"
        },
        {
          "name": "dimensions-map",
          "description": "The dimensions map? TODO:",
          "sourceRange": {
            "start": {
              "line": 33,
              "column": 10
            },
            "end": {
              "line": 33,
              "column": 31
            }
          },
          "metadata": {},
          "type": "Object | null | undefined"
        },
        {
          "name": "anonymize",
          "description": "Turns IP tracking on/off in Google Analytics",
          "sourceRange": {
            "start": {
              "line": 35,
              "column": 10
            },
            "end": {
              "line": 38,
              "column": 11
            }
          },
          "metadata": {},
          "type": "boolean | null | undefined"
        }
      ],
      "events": [],
      "styling": {
        "cssVariables": [],
        "selectors": []
      },
      "slots": [],
      "tagname": "ev-analytics"
    }
  ]
}
